"Time","Ylvis: Downloads - BitTorrent"
2014/08/16 00:00:00,67
2014/08/15 00:00:00,96
2014/08/14 00:00:00,89
2014/08/13 00:00:00,96
2014/08/12 00:00:00,67
2014/08/11 00:00:00,72
2014/08/10 00:00:00,70
2014/08/09 00:00:00,87
2014/08/08 00:00:00,60
2014/08/07 00:00:00,79
2014/08/06 00:00:00,86
2014/08/05 00:00:00,80
2014/08/04 00:00:00,85
2014/08/03 00:00:00,79
2014/08/02 00:00:00,86
2014/08/01 00:00:00,99
2014/07/31 00:00:00,89
2014/07/30 00:00:00,84
2014/07/29 00:00:00,112
2014/07/28 00:00:00,101
2014/07/27 00:00:00,71
2014/07/26 00:00:00,88
2014/07/25 00:00:00,74
2014/07/24 00:00:00,78
2014/07/23 00:00:00,97
2014/07/22 00:00:00,67
2014/07/21 00:00:00,58
2014/07/20 00:00:00,72
2014/07/19 00:00:00,48
2014/07/18 00:00:00,63
2014/07/17 00:00:00,58
2014/07/16 00:00:00,57
2014/07/15 00:00:00,63
2014/07/14 00:00:00,62
2014/07/13 00:00:00,74
2014/07/12 00:00:00,80
2014/07/11 00:00:00,60
2014/07/10 00:00:00,67
2014/07/09 00:00:00,70
2014/07/08 00:00:00,69
2014/07/07 00:00:00,
2014/07/06 00:00:00,
2014/07/05 00:00:00,
2014/07/04 00:00:00,64
2014/07/03 00:00:00,73
2014/07/02 00:00:00,64
2014/07/01 00:00:00,55
2014/06/30 00:00:00,53
2014/06/29 00:00:00,91
2014/06/28 00:00:00,72
2014/06/27 00:00:00,69
2014/06/26 00:00:00,61
2014/06/25 00:00:00,71
2014/06/24 00:00:00,50
2014/06/23 00:00:00,64
2014/06/22 00:00:00,71
2014/06/21 00:00:00,69
2014/06/20 00:00:00,82
2014/06/19 00:00:00,83
2014/06/18 00:00:00,71
2014/06/17 00:00:00,66
2014/06/16 00:00:00,73
2014/06/15 00:00:00,63
2014/06/14 00:00:00,70
2014/06/13 00:00:00,83
2014/06/12 00:00:00,53
2014/06/11 00:00:00,38
2014/06/10 00:00:00,66
2014/06/09 00:00:00,78
2014/06/08 00:00:00,70
2014/06/07 00:00:00,77
2014/06/06 00:00:00,65
2014/06/05 00:00:00,82
2014/06/04 00:00:00,93
2014/06/03 00:00:00,70
2014/06/02 00:00:00,82
2014/06/01 00:00:00,109
2014/05/31 00:00:00,85
2014/05/30 00:00:00,59
2014/05/29 00:00:00,91
2014/05/28 00:00:00,72
2014/05/27 00:00:00,78
2014/05/26 00:00:00,71
2014/05/25 00:00:00,97
2014/05/24 00:00:00,95
2014/05/23 00:00:00,89
2014/05/22 00:00:00,96
2014/05/21 00:00:00,71
2014/05/20 00:00:00,72
2014/05/19 00:00:00,71
2014/05/18 00:00:00,99
2014/05/17 00:00:00,76
2014/05/16 00:00:00,89
2014/05/15 00:00:00,101
2014/05/14 00:00:00,74
2014/05/13 00:00:00,114
2014/05/12 00:00:00,113
2014/05/11 00:00:00,142
2014/05/10 00:00:00,111
2014/05/09 00:00:00,85
2014/05/08 00:00:00,88
2014/05/07 00:00:00,96
2014/05/06 00:00:00,88
2014/05/05 00:00:00,93
2014/05/04 00:00:00,101
2014/05/03 00:00:00,81
2014/05/02 00:00:00,89
2014/05/01 00:00:00,98
2014/04/30 00:00:00,66
2014/04/29 00:00:00,83
2014/04/28 00:00:00,89
2014/04/27 00:00:00,91
2014/04/26 00:00:00,88
2014/04/25 00:00:00,83
2014/04/24 00:00:00,85
2014/04/23 00:00:00,91
2014/04/22 00:00:00,80
2014/04/21 00:00:00,92
2014/04/20 00:00:00,79
2014/04/19 00:00:00,103
2014/04/18 00:00:00,91
2014/04/17 00:00:00,83
2014/04/16 00:00:00,88
2014/04/15 00:00:00,106
2014/04/14 00:00:00,78
2014/04/13 00:00:00,114
2014/04/12 00:00:00,90
2014/04/11 00:00:00,94
2014/04/10 00:00:00,105
2014/04/09 00:00:00,92
2014/04/08 00:00:00,85
2014/04/07 00:00:00,80
2014/04/06 00:00:00,106
2014/04/05 00:00:00,95
2014/04/04 00:00:00,92
2014/04/03 00:00:00,107
2014/04/02 00:00:00,105
2014/04/01 00:00:00,53
2014/03/31 00:00:00,106
2014/03/30 00:00:00,122
2014/03/29 00:00:00,113
2014/03/28 00:00:00,130
2014/03/27 00:00:00,107
2014/03/26 00:00:00,89
2014/03/25 00:00:00,145
2014/03/24 00:00:00,147
2014/03/23 00:00:00,136
2014/03/22 00:00:00,126
2014/03/21 00:00:00,112
2014/03/20 00:00:00,128
2014/03/19 00:00:00,118
2014/03/18 00:00:00,102
2014/03/17 00:00:00,132
2014/03/16 00:00:00,137
2014/03/15 00:00:00,154
2014/03/14 00:00:00,129
2014/03/13 00:00:00,110
2014/03/12 00:00:00,141
2014/03/11 00:00:00,119
2014/03/10 00:00:00,139
2014/03/09 00:00:00,174
2014/03/08 00:00:00,135
2014/03/07 00:00:00,141
2014/03/06 00:00:00,137
2014/03/05 00:00:00,122
2014/03/04 00:00:00,167
2014/03/03 00:00:00,126
2014/03/02 00:00:00,133
2014/03/01 00:00:00,148
2014/02/28 00:00:00,152
2014/02/27 00:00:00,135
2014/02/26 00:00:00,135
2014/02/25 00:00:00,158
2014/02/24 00:00:00,161
2014/02/23 00:00:00,153
2014/02/22 00:00:00,141
2014/02/21 00:00:00,151
2014/02/20 00:00:00,125
2014/02/19 00:00:00,117
2014/02/18 00:00:00,130
2014/02/17 00:00:00,185
2014/02/16 00:00:00,162
2014/02/15 00:00:00,167
2014/02/14 00:00:00,178
2014/02/13 00:00:00,130
2014/02/12 00:00:00,187
2014/02/11 00:00:00,138
2014/02/10 00:00:00,164
2014/02/09 00:00:00,203
2014/02/08 00:00:00,201
2014/02/07 00:00:00,197
2014/02/06 00:00:00,178
2014/02/05 00:00:00,169
2014/02/04 00:00:00,168
2014/02/03 00:00:00,167
2014/02/02 00:00:00,220
2014/02/01 00:00:00,196
2014/01/31 00:00:00,204
2014/01/30 00:00:00,209
2014/01/29 00:00:00,193
2014/01/28 00:00:00,188
2014/01/27 00:00:00,116
2014/01/26 00:00:00,193
2014/01/25 00:00:00,187
2014/01/24 00:00:00,232
2014/01/23 00:00:00,209
2014/01/22 00:00:00,164
2014/01/21 00:00:00,204
2014/01/20 00:00:00,185
2014/01/19 00:00:00,196
2014/01/18 00:00:00,234
2014/01/17 00:00:00,240
2014/01/16 00:00:00,181
2014/01/15 00:00:00,201
2014/01/14 00:00:00,205
2014/01/13 00:00:00,228
2014/01/12 00:00:00,295
2014/01/11 00:00:00,256
2014/01/10 00:00:00,236
2014/01/09 00:00:00,278
2014/01/08 00:00:00,264
2014/01/07 00:00:00,248
2014/01/06 00:00:00,274
2014/01/05 00:00:00,312
2014/01/04 00:00:00,325
2014/01/03 00:00:00,293
2014/01/02 00:00:00,287
2014/01/01 00:00:00,396
2013/12/31 00:00:00,476
2013/12/30 00:00:00,471
2013/12/29 00:00:00,358
2013/12/28 00:00:00,326
2013/12/27 00:00:00,346
2013/12/26 00:00:00,335
2013/12/25 00:00:00,350
2013/12/24 00:00:00,399
2013/12/23 00:00:00,370
2013/12/22 00:00:00,332
2013/12/21 00:00:00,388
2013/12/20 00:00:00,352
2013/12/19 00:00:00,289
2013/12/18 00:00:00,283
2013/12/17 00:00:00,317
2013/12/16 00:00:00,362
2013/12/15 00:00:00,376
2013/12/14 00:00:00,369
2013/12/13 00:00:00,313
2013/12/12 00:00:00,361
2013/12/11 00:00:00,307
2013/12/10 00:00:00,303
2013/12/09 00:00:00,305
2013/12/08 00:00:00,361
2013/12/07 00:00:00,418
2013/12/06 00:00:00,319
2013/12/05 00:00:00,276
2013/12/04 00:00:00,334
2013/12/03 00:00:00,269
2013/12/02 00:00:00,333
2013/12/01 00:00:00,326
2013/11/30 00:00:00,372
2013/11/29 00:00:00,367
2013/11/28 00:00:00,327
2013/11/27 00:00:00,329
2013/11/26 00:00:00,276
2013/11/25 00:00:00,339
2013/11/24 00:00:00,334
2013/11/23 00:00:00,411
2013/11/22 00:00:00,322
2013/11/21 00:00:00,303
2013/11/20 00:00:00,317
2013/11/19 00:00:00,326
2013/11/18 00:00:00,361
2013/11/17 00:00:00,381
2013/11/16 00:00:00,413
2013/11/15 00:00:00,334
2013/11/14 00:00:00,358
2013/11/13 00:00:00,220
2013/11/12 00:00:00,347
2013/11/11 00:00:00,425
2013/11/10 00:00:00,401
2013/11/09 00:00:00,428
2013/11/08 00:00:00,447
2013/11/07 00:00:00,371
2013/11/06 00:00:00,289
2013/11/05 00:00:00,378
2013/11/04 00:00:00,253
2013/11/03 00:00:00,416
2013/11/02 00:00:00,482
2013/11/01 00:00:00,437
2013/10/31 00:00:00,384
2013/10/30 00:00:00,291
2013/10/29 00:00:00,376
2013/10/28 00:00:00,308
2013/10/27 00:00:00,390
2013/10/26 00:00:00,448
2013/10/25 00:00:00,361
2013/10/24 00:00:00,345
2013/10/23 00:00:00,262
2013/10/22 00:00:00,111
2013/10/21 00:00:00,22
2013/10/20 00:00:00,87
2013/10/19 00:00:00,261
2013/10/18 00:00:00,15
2013/10/17 00:00:00,13
2013/10/16 00:00:00,22
2013/10/15 00:00:00,13
2013/10/14 00:00:00,20
2013/10/13 00:00:00,13
2013/10/12 00:00:00,14
2013/10/11 00:00:00,18
2013/10/10 00:00:00,20
2013/10/09 00:00:00,103
2013/10/08 00:00:00,66
2013/10/07 00:00:00,95
2013/10/06 00:00:00,28
2013/10/05 00:00:00,37
2013/10/04 00:00:00,31
2013/10/03 00:00:00,42
2013/10/02 00:00:00,0
2013/10/01 00:00:00,0
2013/09/30 00:00:00,17
2013/09/29 00:00:00,28
2013/09/28 00:00:00,18
2013/09/27 00:00:00,11
2013/09/26 00:00:00,0
2013/09/25 00:00:00,33
2013/09/24 00:00:00,0
2013/09/23 00:00:00,19
2013/09/22 00:00:00,7
2013/09/21 00:00:00,21
2013/09/20 00:00:00,0
2013/09/19 00:00:00,0
2013/09/18 00:00:00,0
2013/09/17 00:00:00,16
2013/09/16 00:00:00,16
2013/09/15 00:00:00,21
2013/09/14 00:00:00,0
2013/09/13 00:00:00,4
2013/09/12 00:00:00,16
2013/09/11 00:00:00,9
2013/09/10 00:00:00,18
2013/09/09 00:00:00,8
2013/09/08 00:00:00,1
